(['C:\\Users\\pental\\PythonProject\\GPXInvert2.py'],
 ['C:\\Users\\pental\\PythonProject', 'C:\\Users\\pental\\PythonProject'],
 ['codecs'],
 ['c:\\users\\pental\\anaconda3\\lib\\site-packages\\_pyinstaller_hooks_contrib\\hooks\\stdhooks',
  'c:\\users\\pental\\anaconda3\\lib\\site-packages\\_pyinstaller_hooks_contrib\\hooks\\stdhooks\\__pycache__',
  'c:\\users\\pental\\anaconda3\\lib\\site-packages\\_pyinstaller_hooks_contrib\\hooks\\rthooks',
  'c:\\users\\pental\\anaconda3\\lib\\site-packages\\_pyinstaller_hooks_contrib\\hooks\\rthooks\\__pycache__',
  'c:\\users\\pental\\anaconda3\\lib\\site-packages\\_pyinstaller_hooks_contrib\\hooks'],
 [],
 [],
 False,
 False,
 False,
 '3.8.5 (default, Sep  3 2020, 21:29:08) [MSC v.1916 64 bit (AMD64)]',
 [('pyi_rth_multiprocessing',
   'C:\\Users\\pental\\anaconda3\\Lib\\site-packages\\PyInstaller\\hooks\\rthooks\\pyi_rth_multiprocessing.py',
   'PYSOURCE'),
  ('pyi_rth_win32api',
   'C:\\Users\\pental\\anaconda3\\Lib\\site-packages\\PyInstaller\\hooks\\rthooks\\pyi_rth_win32api.py',
   'PYSOURCE'),
  ('GPXInvert2',
   'C:\\Users\\pental\\PythonProject\\GPXInvert2.py',
   'PYSOURCE')],
 [('pywintypes',
   'c:\\users\\pental\\anaconda3\\lib\\site-packages\\win32\\lib\\pywintypes.py',
   'PYMODULE'),
  ('distutils.sysconfig',
   'c:\\users\\pental\\anaconda3\\lib\\distutils\\sysconfig.py',
   'PYMODULE'),
  ('distutils.text_file',
   'c:\\users\\pental\\anaconda3\\lib\\distutils\\text_file.py',
   'PYMODULE'),
  ('_osx_support',
   'c:\\users\\pental\\anaconda3\\lib\\_osx_support.py',
   'PYMODULE'),
  ('distutils.log',
   'c:\\users\\pental\\anaconda3\\lib\\distutils\\log.py',
   'PYMODULE'),
  ('tempfile', 'c:\\users\\pental\\anaconda3\\lib\\tempfile.py', 'PYMODULE'),
  ('random', 'c:\\users\\pental\\anaconda3\\lib\\random.py', 'PYMODULE'),
  ('_strptime', 'c:\\users\\pental\\anaconda3\\lib\\_strptime.py', 'PYMODULE'),
  ('datetime', 'c:\\users\\pental\\anaconda3\\lib\\datetime.py', 'PYMODULE'),
  ('calendar', 'c:\\users\\pental\\anaconda3\\lib\\calendar.py', 'PYMODULE'),
  ('argparse', 'c:\\users\\pental\\anaconda3\\lib\\argparse.py', 'PYMODULE'),
  ('textwrap', 'c:\\users\\pental\\anaconda3\\lib\\textwrap.py', 'PYMODULE'),
  ('copy', 'c:\\users\\pental\\anaconda3\\lib\\copy.py', 'PYMODULE'),
  ('gettext', 'c:\\users\\pental\\anaconda3\\lib\\gettext.py', 'PYMODULE'),
  ('struct', 'c:\\users\\pental\\anaconda3\\lib\\struct.py', 'PYMODULE'),
  ('hashlib', 'c:\\users\\pental\\anaconda3\\lib\\hashlib.py', 'PYMODULE'),
  ('logging',
   'c:\\users\\pental\\anaconda3\\lib\\logging\\__init__.py',
   'PYMODULE'),
  ('pickle', 'c:\\users\\pental\\anaconda3\\lib\\pickle.py', 'PYMODULE'),
  ('pprint', 'c:\\users\\pental\\anaconda3\\lib\\pprint.py', 'PYMODULE'),
  ('doctest', 'c:\\users\\pental\\anaconda3\\lib\\doctest.py', 'PYMODULE'),
  ('unittest',
   'c:\\users\\pental\\anaconda3\\lib\\unittest\\__init__.py',
   'PYMODULE'),
  ('ntpath', 'c:\\users\\pental\\anaconda3\\lib\\ntpath.py', 'PYMODULE'),
  ('genericpath',
   'c:\\users\\pental\\anaconda3\\lib\\genericpath.py',
   'PYMODULE'),
  ('stat', 'c:\\users\\pental\\anaconda3\\lib\\stat.py', 'PYMODULE'),
  ('unittest.signals',
   'c:\\users\\pental\\anaconda3\\lib\\unittest\\signals.py',
   'PYMODULE'),
  ('signal', 'c:\\users\\pental\\anaconda3\\lib\\signal.py', 'PYMODULE'),
  ('unittest.main',
   'c:\\users\\pental\\anaconda3\\lib\\unittest\\main.py',
   'PYMODULE'),
  ('unittest.runner',
   'c:\\users\\pental\\anaconda3\\lib\\unittest\\runner.py',
   'PYMODULE'),
  ('unittest.loader',
   'c:\\users\\pental\\anaconda3\\lib\\unittest\\loader.py',
   'PYMODULE'),
  ('fnmatch', 'c:\\users\\pental\\anaconda3\\lib\\fnmatch.py', 'PYMODULE'),
  ('posixpath', 'c:\\users\\pental\\anaconda3\\lib\\posixpath.py', 'PYMODULE'),
  ('unittest.suite',
   'c:\\users\\pental\\anaconda3\\lib\\unittest\\suite.py',
   'PYMODULE'),
  ('unittest.case',
   'c:\\users\\pental\\anaconda3\\lib\\unittest\\case.py',
   'PYMODULE'),
  ('unittest.async_case',
   'c:\\users\\pental\\anaconda3\\lib\\unittest\\async_case.py',
   'PYMODULE'),
  ('asyncio',
   'c:\\users\\pental\\anaconda3\\lib\\asyncio\\__init__.py',
   'PYMODULE'),
  ('asyncio.unix_events',
   'c:\\users\\pental\\anaconda3\\lib\\asyncio\\unix_events.py',
   'PYMODULE'),
  ('asyncio.log',
   'c:\\users\\pental\\anaconda3\\lib\\asyncio\\log.py',
   'PYMODULE'),
  ('subprocess',
   'c:\\users\\pental\\anaconda3\\lib\\subprocess.py',
   'PYMODULE'),
  ('socket', 'c:\\users\\pental\\anaconda3\\lib\\socket.py', 'PYMODULE'),
  ('selectors', 'c:\\users\\pental\\anaconda3\\lib\\selectors.py', 'PYMODULE'),
  ('asyncio.windows_events',
   'c:\\users\\pental\\anaconda3\\lib\\asyncio\\windows_events.py',
   'PYMODULE'),
  ('asyncio.windows_utils',
   'c:\\users\\pental\\anaconda3\\lib\\asyncio\\windows_utils.py',
   'PYMODULE'),
  ('asyncio.selector_events',
   'c:\\users\\pental\\anaconda3\\lib\\asyncio\\selector_events.py',
   'PYMODULE'),
  ('ssl', 'c:\\users\\pental\\anaconda3\\lib\\ssl.py', 'PYMODULE'),
  ('base64', 'c:\\users\\pental\\anaconda3\\lib\\base64.py', 'PYMODULE'),
  ('getopt', 'c:\\users\\pental\\anaconda3\\lib\\getopt.py', 'PYMODULE'),
  ('asyncio.proactor_events',
   'c:\\users\\pental\\anaconda3\\lib\\asyncio\\proactor_events.py',
   'PYMODULE'),
  ('asyncio.base_subprocess',
   'c:\\users\\pental\\anaconda3\\lib\\asyncio\\base_subprocess.py',
   'PYMODULE'),
  ('asyncio.subprocess',
   'c:\\users\\pental\\anaconda3\\lib\\asyncio\\subprocess.py',
   'PYMODULE'),
  ('asyncio.streams',
   'c:\\users\\pental\\anaconda3\\lib\\asyncio\\streams.py',
   'PYMODULE'),
  ('asyncio.queues',
   'c:\\users\\pental\\anaconda3\\lib\\asyncio\\queues.py',
   'PYMODULE'),
  ('asyncio.runners',
   'c:\\users\\pental\\anaconda3\\lib\\asyncio\\runners.py',
   'PYMODULE'),
  ('asyncio.events',
   'c:\\users\\pental\\anaconda3\\lib\\asyncio\\events.py',
   'PYMODULE'),
  ('contextvars',
   'c:\\users\\pental\\anaconda3\\lib\\contextvars.py',
   'PYMODULE'),
  ('asyncio.trsock',
   'c:\\users\\pental\\anaconda3\\lib\\asyncio\\trsock.py',
   'PYMODULE'),
  ('asyncio.staggered',
   'c:\\users\\pental\\anaconda3\\lib\\asyncio\\staggered.py',
   'PYMODULE'),
  ('typing', 'c:\\users\\pental\\anaconda3\\lib\\typing.py', 'PYMODULE'),
  ('asyncio.tasks',
   'c:\\users\\pental\\anaconda3\\lib\\asyncio\\tasks.py',
   'PYMODULE'),
  ('concurrent.futures',
   'c:\\users\\pental\\anaconda3\\lib\\concurrent\\futures\\__init__.py',
   'PYMODULE'),
  ('concurrent.futures.thread',
   'c:\\users\\pental\\anaconda3\\lib\\concurrent\\futures\\thread.py',
   'PYMODULE'),
  ('queue', 'c:\\users\\pental\\anaconda3\\lib\\queue.py', 'PYMODULE'),
  ('concurrent.futures.process',
   'c:\\users\\pental\\anaconda3\\lib\\concurrent\\futures\\process.py',
   'PYMODULE'),
  ('multiprocessing.queues',
   'c:\\users\\pental\\anaconda3\\lib\\multiprocessing\\queues.py',
   'PYMODULE'),
  ('multiprocessing.synchronize',
   'c:\\users\\pental\\anaconda3\\lib\\multiprocessing\\synchronize.py',
   'PYMODULE'),
  ('multiprocessing.heap',
   'c:\\users\\pental\\anaconda3\\lib\\multiprocessing\\heap.py',
   'PYMODULE'),
  ('multiprocessing.resource_tracker',
   'c:\\users\\pental\\anaconda3\\lib\\multiprocessing\\resource_tracker.py',
   'PYMODULE'),
  ('multiprocessing.spawn',
   'c:\\users\\pental\\anaconda3\\lib\\multiprocessing\\spawn.py',
   'PYMODULE'),
  ('runpy', 'c:\\users\\pental\\anaconda3\\lib\\runpy.py', 'PYMODULE'),
  ('pkgutil', 'c:\\users\\pental\\anaconda3\\lib\\pkgutil.py', 'PYMODULE'),
  ('zipimport', 'c:\\users\\pental\\anaconda3\\lib\\zipimport.py', 'PYMODULE'),
  ('pathlib', 'c:\\users\\pental\\anaconda3\\lib\\pathlib.py', 'PYMODULE'),
  ('urllib.parse',
   'c:\\users\\pental\\anaconda3\\lib\\urllib\\parse.py',
   'PYMODULE'),
  ('urllib',
   'c:\\users\\pental\\anaconda3\\lib\\urllib\\__init__.py',
   'PYMODULE'),
  ('importlib.abc',
   'c:\\users\\pental\\anaconda3\\lib\\importlib\\abc.py',
   'PYMODULE'),
  ('importlib._bootstrap_external',
   'c:\\users\\pental\\anaconda3\\lib\\importlib\\_bootstrap_external.py',
   'PYMODULE'),
  ('importlib.metadata',
   'c:\\users\\pental\\anaconda3\\lib\\importlib\\metadata.py',
   'PYMODULE'),
  ('configparser',
   'c:\\users\\pental\\anaconda3\\lib\\configparser.py',
   'PYMODULE'),
  ('zipfile', 'c:\\users\\pental\\anaconda3\\lib\\zipfile.py', 'PYMODULE'),
  ('py_compile',
   'c:\\users\\pental\\anaconda3\\lib\\py_compile.py',
   'PYMODULE'),
  ('lzma', 'c:\\users\\pental\\anaconda3\\lib\\lzma.py', 'PYMODULE'),
  ('_compression',
   'c:\\users\\pental\\anaconda3\\lib\\_compression.py',
   'PYMODULE'),
  ('bz2', 'c:\\users\\pental\\anaconda3\\lib\\bz2.py', 'PYMODULE'),
  ('email',
   'c:\\users\\pental\\anaconda3\\lib\\email\\__init__.py',
   'PYMODULE'),
  ('email.parser',
   'c:\\users\\pental\\anaconda3\\lib\\email\\parser.py',
   'PYMODULE'),
  ('email._policybase',
   'c:\\users\\pental\\anaconda3\\lib\\email\\_policybase.py',
   'PYMODULE'),
  ('email.utils',
   'c:\\users\\pental\\anaconda3\\lib\\email\\utils.py',
   'PYMODULE'),
  ('email._parseaddr',
   'c:\\users\\pental\\anaconda3\\lib\\email\\_parseaddr.py',
   'PYMODULE'),
  ('email.feedparser',
   'c:\\users\\pental\\anaconda3\\lib\\email\\feedparser.py',
   'PYMODULE'),
  ('email.message',
   'c:\\users\\pental\\anaconda3\\lib\\email\\message.py',
   'PYMODULE'),
  ('email.policy',
   'c:\\users\\pental\\anaconda3\\lib\\email\\policy.py',
   'PYMODULE'),
  ('email.contentmanager',
   'c:\\users\\pental\\anaconda3\\lib\\email\\contentmanager.py',
   'PYMODULE'),
  ('email.quoprimime',
   'c:\\users\\pental\\anaconda3\\lib\\email\\quoprimime.py',
   'PYMODULE'),
  ('email.headerregistry',
   'c:\\users\\pental\\anaconda3\\lib\\email\\headerregistry.py',
   'PYMODULE'),
  ('email.iterators',
   'c:\\users\\pental\\anaconda3\\lib\\email\\iterators.py',
   'PYMODULE'),
  ('email.generator',
   'c:\\users\\pental\\anaconda3\\lib\\email\\generator.py',
   'PYMODULE'),
  ('email._encoded_words',
   'c:\\users\\pental\\anaconda3\\lib\\email\\_encoded_words.py',
   'PYMODULE'),
  ('quopri', 'c:\\users\\pental\\anaconda3\\lib\\quopri.py', 'PYMODULE'),
  ('uu', 'c:\\users\\pental\\anaconda3\\lib\\uu.py', 'PYMODULE'),
  ('optparse', 'c:\\users\\pental\\anaconda3\\lib\\optparse.py', 'PYMODULE'),
  ('email._header_value_parser',
   'c:\\users\\pental\\anaconda3\\lib\\email\\_header_value_parser.py',
   'PYMODULE'),
  ('email.header',
   'c:\\users\\pental\\anaconda3\\lib\\email\\header.py',
   'PYMODULE'),
  ('email.base64mime',
   'c:\\users\\pental\\anaconda3\\lib\\email\\base64mime.py',
   'PYMODULE'),
  ('email.charset',
   'c:\\users\\pental\\anaconda3\\lib\\email\\charset.py',
   'PYMODULE'),
  ('email.encoders',
   'c:\\users\\pental\\anaconda3\\lib\\email\\encoders.py',
   'PYMODULE'),
  ('email.errors',
   'c:\\users\\pental\\anaconda3\\lib\\email\\errors.py',
   'PYMODULE'),
  ('csv', 'c:\\users\\pental\\anaconda3\\lib\\csv.py', 'PYMODULE'),
  ('tokenize', 'c:\\users\\pental\\anaconda3\\lib\\tokenize.py', 'PYMODULE'),
  ('token', 'c:\\users\\pental\\anaconda3\\lib\\token.py', 'PYMODULE'),
  ('importlib._bootstrap',
   'c:\\users\\pental\\anaconda3\\lib\\importlib\\_bootstrap.py',
   'PYMODULE'),
  ('importlib',
   'c:\\users\\pental\\anaconda3\\lib\\importlib\\__init__.py',
   'PYMODULE'),
  ('importlib.util',
   'c:\\users\\pental\\anaconda3\\lib\\importlib\\util.py',
   'PYMODULE'),
  ('importlib.machinery',
   'c:\\users\\pental\\anaconda3\\lib\\importlib\\machinery.py',
   'PYMODULE'),
  ('multiprocessing.process',
   'c:\\users\\pental\\anaconda3\\lib\\multiprocessing\\process.py',
   'PYMODULE'),
  ('multiprocessing.util',
   'c:\\users\\pental\\anaconda3\\lib\\multiprocessing\\util.py',
   'PYMODULE'),
  ('multiprocessing.forkserver',
   'c:\\users\\pental\\anaconda3\\lib\\multiprocessing\\forkserver.py',
   'PYMODULE'),
  ('multiprocessing.context',
   'c:\\users\\pental\\anaconda3\\lib\\multiprocessing\\context.py',
   'PYMODULE'),
  ('multiprocessing.popen_spawn_win32',
   'c:\\users\\pental\\anaconda3\\lib\\multiprocessing\\popen_spawn_win32.py',
   'PYMODULE'),
  ('multiprocessing.popen_forkserver',
   'c:\\users\\pental\\anaconda3\\lib\\multiprocessing\\popen_forkserver.py',
   'PYMODULE'),
  ('multiprocessing.popen_spawn_posix',
   'c:\\users\\pental\\anaconda3\\lib\\multiprocessing\\popen_spawn_posix.py',
   'PYMODULE'),
  ('multiprocessing.popen_fork',
   'c:\\users\\pental\\anaconda3\\lib\\multiprocessing\\popen_fork.py',
   'PYMODULE'),
  ('multiprocessing.sharedctypes',
   'c:\\users\\pental\\anaconda3\\lib\\multiprocessing\\sharedctypes.py',
   'PYMODULE'),
  ('ctypes',
   'c:\\users\\pental\\anaconda3\\lib\\ctypes\\__init__.py',
   'PYMODULE'),
  ('ctypes._endian',
   'c:\\users\\pental\\anaconda3\\lib\\ctypes\\_endian.py',
   'PYMODULE'),
  ('multiprocessing.pool',
   'c:\\users\\pental\\anaconda3\\lib\\multiprocessing\\pool.py',
   'PYMODULE'),
  ('multiprocessing.dummy',
   'c:\\users\\pental\\anaconda3\\lib\\multiprocessing\\dummy\\__init__.py',
   'PYMODULE'),
  ('multiprocessing.dummy.connection',
   'c:\\users\\pental\\anaconda3\\lib\\multiprocessing\\dummy\\connection.py',
   'PYMODULE'),
  ('multiprocessing.managers',
   'c:\\users\\pental\\anaconda3\\lib\\multiprocessing\\managers.py',
   'PYMODULE'),
  ('multiprocessing.shared_memory',
   'c:\\users\\pental\\anaconda3\\lib\\multiprocessing\\shared_memory.py',
   'PYMODULE'),
  ('secrets', 'c:\\users\\pental\\anaconda3\\lib\\secrets.py', 'PYMODULE'),
  ('hmac', 'c:\\users\\pental\\anaconda3\\lib\\hmac.py', 'PYMODULE'),
  ('multiprocessing.reduction',
   'c:\\users\\pental\\anaconda3\\lib\\multiprocessing\\reduction.py',
   'PYMODULE'),
  ('multiprocessing.resource_sharer',
   'c:\\users\\pental\\anaconda3\\lib\\multiprocessing\\resource_sharer.py',
   'PYMODULE'),
  ('multiprocessing.connection',
   'c:\\users\\pental\\anaconda3\\lib\\multiprocessing\\connection.py',
   'PYMODULE'),
  ('xmlrpc.client',
   'c:\\users\\pental\\anaconda3\\lib\\xmlrpc\\client.py',
   'PYMODULE'),
  ('xmlrpc',
   'c:\\users\\pental\\anaconda3\\lib\\xmlrpc\\__init__.py',
   'PYMODULE'),
  ('gzip', 'c:\\users\\pental\\anaconda3\\lib\\gzip.py', 'PYMODULE'),
  ('xml.parsers.expat',
   'c:\\users\\pental\\anaconda3\\lib\\xml\\parsers\\expat.py',
   'PYMODULE'),
  ('xml.parsers',
   'c:\\users\\pental\\anaconda3\\lib\\xml\\parsers\\__init__.py',
   'PYMODULE'),
  ('xml', 'c:\\users\\pental\\anaconda3\\lib\\xml\\__init__.py', 'PYMODULE'),
  ('xml.sax.expatreader',
   'c:\\users\\pental\\anaconda3\\lib\\xml\\sax\\expatreader.py',
   'PYMODULE'),
  ('xml.sax.saxutils',
   'c:\\users\\pental\\anaconda3\\lib\\xml\\sax\\saxutils.py',
   'PYMODULE'),
  ('urllib.request',
   'c:\\users\\pental\\anaconda3\\lib\\urllib\\request.py',
   'PYMODULE'),
  ('getpass', 'c:\\users\\pental\\anaconda3\\lib\\getpass.py', 'PYMODULE'),
  ('nturl2path',
   'c:\\users\\pental\\anaconda3\\lib\\nturl2path.py',
   'PYMODULE'),
  ('ftplib', 'c:\\users\\pental\\anaconda3\\lib\\ftplib.py', 'PYMODULE'),
  ('netrc', 'c:\\users\\pental\\anaconda3\\lib\\netrc.py', 'PYMODULE'),
  ('shlex', 'c:\\users\\pental\\anaconda3\\lib\\shlex.py', 'PYMODULE'),
  ('mimetypes', 'c:\\users\\pental\\anaconda3\\lib\\mimetypes.py', 'PYMODULE'),
  ('http.cookiejar',
   'c:\\users\\pental\\anaconda3\\lib\\http\\cookiejar.py',
   'PYMODULE'),
  ('http', 'c:\\users\\pental\\anaconda3\\lib\\http\\__init__.py', 'PYMODULE'),
  ('urllib.response',
   'c:\\users\\pental\\anaconda3\\lib\\urllib\\response.py',
   'PYMODULE'),
  ('urllib.error',
   'c:\\users\\pental\\anaconda3\\lib\\urllib\\error.py',
   'PYMODULE'),
  ('xml.sax',
   'c:\\users\\pental\\anaconda3\\lib\\xml\\sax\\__init__.py',
   'PYMODULE'),
  ('xml.sax.handler',
   'c:\\users\\pental\\anaconda3\\lib\\xml\\sax\\handler.py',
   'PYMODULE'),
  ('xml.sax._exceptions',
   'c:\\users\\pental\\anaconda3\\lib\\xml\\sax\\_exceptions.py',
   'PYMODULE'),
  ('xml.sax.xmlreader',
   'c:\\users\\pental\\anaconda3\\lib\\xml\\sax\\xmlreader.py',
   'PYMODULE'),
  ('http.client',
   'c:\\users\\pental\\anaconda3\\lib\\http\\client.py',
   'PYMODULE'),
  ('decimal', 'c:\\users\\pental\\anaconda3\\lib\\decimal.py', 'PYMODULE'),
  ('_pydecimal',
   'c:\\users\\pental\\anaconda3\\lib\\_pydecimal.py',
   'PYMODULE'),
  ('numbers', 'c:\\users\\pental\\anaconda3\\lib\\numbers.py', 'PYMODULE'),
  ('multiprocessing',
   'c:\\users\\pental\\anaconda3\\lib\\multiprocessing\\__init__.py',
   'PYMODULE'),
  ('concurrent.futures._base',
   'c:\\users\\pental\\anaconda3\\lib\\concurrent\\futures\\_base.py',
   'PYMODULE'),
  ('concurrent',
   'c:\\users\\pental\\anaconda3\\lib\\concurrent\\__init__.py',
   'PYMODULE'),
  ('asyncio.base_tasks',
   'c:\\users\\pental\\anaconda3\\lib\\asyncio\\base_tasks.py',
   'PYMODULE'),
  ('asyncio.locks',
   'c:\\users\\pental\\anaconda3\\lib\\asyncio\\locks.py',
   'PYMODULE'),
  ('asyncio.sslproto',
   'c:\\users\\pental\\anaconda3\\lib\\asyncio\\sslproto.py',
   'PYMODULE'),
  ('asyncio.transports',
   'c:\\users\\pental\\anaconda3\\lib\\asyncio\\transports.py',
   'PYMODULE'),
  ('asyncio.base_events',
   'c:\\users\\pental\\anaconda3\\lib\\asyncio\\base_events.py',
   'PYMODULE'),
  ('asyncio.protocols',
   'c:\\users\\pental\\anaconda3\\lib\\asyncio\\protocols.py',
   'PYMODULE'),
  ('asyncio.futures',
   'c:\\users\\pental\\anaconda3\\lib\\asyncio\\futures.py',
   'PYMODULE'),
  ('asyncio.coroutines',
   'c:\\users\\pental\\anaconda3\\lib\\asyncio\\coroutines.py',
   'PYMODULE'),
  ('asyncio.base_futures',
   'c:\\users\\pental\\anaconda3\\lib\\asyncio\\base_futures.py',
   'PYMODULE'),
  ('asyncio.exceptions',
   'c:\\users\\pental\\anaconda3\\lib\\asyncio\\exceptions.py',
   'PYMODULE'),
  ('asyncio.format_helpers',
   'c:\\users\\pental\\anaconda3\\lib\\asyncio\\format_helpers.py',
   'PYMODULE'),
  ('asyncio.constants',
   'c:\\users\\pental\\anaconda3\\lib\\asyncio\\constants.py',
   'PYMODULE'),
  ('unittest.result',
   'c:\\users\\pental\\anaconda3\\lib\\unittest\\result.py',
   'PYMODULE'),
  ('unittest.util',
   'c:\\users\\pental\\anaconda3\\lib\\unittest\\util.py',
   'PYMODULE'),
  ('pdb', 'c:\\users\\pental\\anaconda3\\lib\\pdb.py', 'PYMODULE'),
  ('pydoc', 'c:\\users\\pental\\anaconda3\\lib\\pydoc.py', 'PYMODULE'),
  ('webbrowser',
   'c:\\users\\pental\\anaconda3\\lib\\webbrowser.py',
   'PYMODULE'),
  ('http.server',
   'c:\\users\\pental\\anaconda3\\lib\\http\\server.py',
   'PYMODULE'),
  ('socketserver',
   'c:\\users\\pental\\anaconda3\\lib\\socketserver.py',
   'PYMODULE'),
  ('html', 'c:\\users\\pental\\anaconda3\\lib\\html\\__init__.py', 'PYMODULE'),
  ('html.entities',
   'c:\\users\\pental\\anaconda3\\lib\\html\\entities.py',
   'PYMODULE'),
  ('pydoc_data.topics',
   'c:\\users\\pental\\anaconda3\\lib\\pydoc_data\\topics.py',
   'PYMODULE'),
  ('pydoc_data',
   'c:\\users\\pental\\anaconda3\\lib\\pydoc_data\\__init__.py',
   'PYMODULE'),
  ('tty', 'c:\\users\\pental\\anaconda3\\lib\\tty.py', 'PYMODULE'),
  ('sysconfig', 'c:\\users\\pental\\anaconda3\\lib\\sysconfig.py', 'PYMODULE'),
  ('platform', 'c:\\users\\pental\\anaconda3\\lib\\platform.py', 'PYMODULE'),
  ('plistlib', 'c:\\users\\pental\\anaconda3\\lib\\plistlib.py', 'PYMODULE'),
  ('readline',
   'c:\\users\\pental\\anaconda3\\lib\\site-packages\\readline.py',
   'PYMODULE'),
  ('pyreadline.console',
   'c:\\users\\pental\\anaconda3\\lib\\site-packages\\pyreadline\\console\\__init__.py',
   'PYMODULE'),
  ('pyreadline.console.console',
   'c:\\users\\pental\\anaconda3\\lib\\site-packages\\pyreadline\\console\\console.py',
   'PYMODULE'),
  ('pyreadline.console.event',
   'c:\\users\\pental\\anaconda3\\lib\\site-packages\\pyreadline\\console\\event.py',
   'PYMODULE'),
  ('ctypes.wintypes',
   'c:\\users\\pental\\anaconda3\\lib\\ctypes\\wintypes.py',
   'PYMODULE'),
  ('ctypes.util',
   'c:\\users\\pental\\anaconda3\\lib\\ctypes\\util.py',
   'PYMODULE'),
  ('ctypes._aix',
   'c:\\users\\pental\\anaconda3\\lib\\ctypes\\_aix.py',
   'PYMODULE'),
  ('ctypes.macholib.dyld',
   'c:\\users\\pental\\anaconda3\\lib\\ctypes\\macholib\\dyld.py',
   'PYMODULE'),
  ('ctypes.macholib',
   'c:\\users\\pental\\anaconda3\\lib\\ctypes\\macholib\\__init__.py',
   'PYMODULE'),
  ('ctypes.macholib.dylib',
   'c:\\users\\pental\\anaconda3\\lib\\ctypes\\macholib\\dylib.py',
   'PYMODULE'),
  ('ctypes.macholib.framework',
   'c:\\users\\pental\\anaconda3\\lib\\ctypes\\macholib\\framework.py',
   'PYMODULE'),
  ('pyreadline.console.ansi',
   'c:\\users\\pental\\anaconda3\\lib\\site-packages\\pyreadline\\console\\ansi.py',
   'PYMODULE'),
  ('pyreadline.keysyms',
   'c:\\users\\pental\\anaconda3\\lib\\site-packages\\pyreadline\\keysyms\\__init__.py',
   'PYMODULE'),
  ('pyreadline.keysyms.keysyms',
   'c:\\users\\pental\\anaconda3\\lib\\site-packages\\pyreadline\\keysyms\\keysyms.py',
   'PYMODULE'),
  ('pyreadline.keysyms.common',
   'c:\\users\\pental\\anaconda3\\lib\\site-packages\\pyreadline\\keysyms\\common.py',
   'PYMODULE'),
  ('pyreadline.keysyms.ironpython_keysyms',
   'c:\\users\\pental\\anaconda3\\lib\\site-packages\\pyreadline\\keysyms\\ironpython_keysyms.py',
   'PYMODULE'),
  ('pyreadline.keysyms.winconstants',
   'c:\\users\\pental\\anaconda3\\lib\\site-packages\\pyreadline\\keysyms\\winconstants.py',
   'PYMODULE'),
  ('pyreadline.logger',
   'c:\\users\\pental\\anaconda3\\lib\\site-packages\\pyreadline\\logger.py',
   'PYMODULE'),
  ('logging.handlers',
   'c:\\users\\pental\\anaconda3\\lib\\logging\\handlers.py',
   'PYMODULE'),
  ('win32evtlogutil',
   'c:\\users\\pental\\anaconda3\\lib\\site-packages\\win32\\lib\\win32evtlogutil.py',
   'PYMODULE'),
  ('winerror',
   'c:\\users\\pental\\anaconda3\\lib\\site-packages\\win32\\lib\\winerror.py',
   'PYMODULE'),
  ('win32con',
   'c:\\users\\pental\\anaconda3\\lib\\site-packages\\win32\\lib\\win32con.py',
   'PYMODULE'),
  ('smtplib', 'c:\\users\\pental\\anaconda3\\lib\\smtplib.py', 'PYMODULE'),
  ('pyreadline.unicode_helper',
   'c:\\users\\pental\\anaconda3\\lib\\site-packages\\pyreadline\\unicode_helper.py',
   'PYMODULE'),
  ('pyreadline.py3k_compat',
   'c:\\users\\pental\\anaconda3\\lib\\site-packages\\pyreadline\\py3k_compat.py',
   'PYMODULE'),
  ('pyreadline.console.ironpython_console',
   'c:\\users\\pental\\anaconda3\\lib\\site-packages\\pyreadline\\console\\ironpython_console.py',
   'PYMODULE'),
  ('pyreadline',
   'c:\\users\\pental\\anaconda3\\lib\\site-packages\\pyreadline\\__init__.py',
   'PYMODULE'),
  ('pyreadline.release',
   'c:\\users\\pental\\anaconda3\\lib\\site-packages\\pyreadline\\release.py',
   'PYMODULE'),
  ('pyreadline.modes',
   'c:\\users\\pental\\anaconda3\\lib\\site-packages\\pyreadline\\modes\\__init__.py',
   'PYMODULE'),
  ('pyreadline.modes.vi',
   'c:\\users\\pental\\anaconda3\\lib\\site-packages\\pyreadline\\modes\\vi.py',
   'PYMODULE'),
  ('pyreadline.lineeditor.history',
   'c:\\users\\pental\\anaconda3\\lib\\site-packages\\pyreadline\\lineeditor\\history.py',
   'PYMODULE'),
  ('pyreadline.lineeditor.lineobj',
   'c:\\users\\pental\\anaconda3\\lib\\site-packages\\pyreadline\\lineeditor\\lineobj.py',
   'PYMODULE'),
  ('pyreadline.lineeditor.wordmatcher',
   'c:\\users\\pental\\anaconda3\\lib\\site-packages\\pyreadline\\lineeditor\\wordmatcher.py',
   'PYMODULE'),
  ('pyreadline.modes.notemacs',
   'c:\\users\\pental\\anaconda3\\lib\\site-packages\\pyreadline\\modes\\notemacs.py',
   'PYMODULE'),
  ('pyreadline.modes.emacs',
   'c:\\users\\pental\\anaconda3\\lib\\site-packages\\pyreadline\\modes\\emacs.py',
   'PYMODULE'),
  ('pyreadline.modes.basemode',
   'c:\\users\\pental\\anaconda3\\lib\\site-packages\\pyreadline\\modes\\basemode.py',
   'PYMODULE'),
  ('pyreadline.error',
   'c:\\users\\pental\\anaconda3\\lib\\site-packages\\pyreadline\\error.py',
   'PYMODULE'),
  ('pyreadline.lineeditor',
   'c:\\users\\pental\\anaconda3\\lib\\site-packages\\pyreadline\\lineeditor\\__init__.py',
   'PYMODULE'),
  ('pyreadline.clipboard',
   'c:\\users\\pental\\anaconda3\\lib\\site-packages\\pyreadline\\clipboard\\__init__.py',
   'PYMODULE'),
  ('pyreadline.clipboard.win32_clipboard',
   'c:\\users\\pental\\anaconda3\\lib\\site-packages\\pyreadline\\clipboard\\win32_clipboard.py',
   'PYMODULE'),
  ('pyreadline.clipboard.no_clipboard',
   'c:\\users\\pental\\anaconda3\\lib\\site-packages\\pyreadline\\clipboard\\no_clipboard.py',
   'PYMODULE'),
  ('pyreadline.clipboard.ironpython_clipboard',
   'c:\\users\\pental\\anaconda3\\lib\\site-packages\\pyreadline\\clipboard\\ironpython_clipboard.py',
   'PYMODULE'),
  ('pyreadline.rlmain',
   'c:\\users\\pental\\anaconda3\\lib\\site-packages\\pyreadline\\rlmain.py',
   'PYMODULE'),
  ('glob', 'c:\\users\\pental\\anaconda3\\lib\\glob.py', 'PYMODULE'),
  ('code', 'c:\\users\\pental\\anaconda3\\lib\\code.py', 'PYMODULE'),
  ('codeop', 'c:\\users\\pental\\anaconda3\\lib\\codeop.py', 'PYMODULE'),
  ('dis', 'c:\\users\\pental\\anaconda3\\lib\\dis.py', 'PYMODULE'),
  ('opcode', 'c:\\users\\pental\\anaconda3\\lib\\opcode.py', 'PYMODULE'),
  ('bdb', 'c:\\users\\pental\\anaconda3\\lib\\bdb.py', 'PYMODULE'),
  ('cmd', 'c:\\users\\pental\\anaconda3\\lib\\cmd.py', 'PYMODULE'),
  ('inspect', 'c:\\users\\pental\\anaconda3\\lib\\inspect.py', 'PYMODULE'),
  ('ast', 'c:\\users\\pental\\anaconda3\\lib\\ast.py', 'PYMODULE'),
  ('difflib', 'c:\\users\\pental\\anaconda3\\lib\\difflib.py', 'PYMODULE'),
  ('__future__',
   'c:\\users\\pental\\anaconda3\\lib\\__future__.py',
   'PYMODULE'),
  ('_compat_pickle',
   'c:\\users\\pental\\anaconda3\\lib\\_compat_pickle.py',
   'PYMODULE'),
  ('threading', 'c:\\users\\pental\\anaconda3\\lib\\threading.py', 'PYMODULE'),
  ('_threading_local',
   'c:\\users\\pental\\anaconda3\\lib\\_threading_local.py',
   'PYMODULE'),
  ('string', 'c:\\users\\pental\\anaconda3\\lib\\string.py', 'PYMODULE'),
  ('bisect', 'c:\\users\\pental\\anaconda3\\lib\\bisect.py', 'PYMODULE'),
  ('shutil', 'c:\\users\\pental\\anaconda3\\lib\\shutil.py', 'PYMODULE'),
  ('tarfile', 'c:\\users\\pental\\anaconda3\\lib\\tarfile.py', 'PYMODULE'),
  ('contextlib',
   'c:\\users\\pental\\anaconda3\\lib\\contextlib.py',
   'PYMODULE'),
  ('distutils.util',
   'c:\\users\\pental\\anaconda3\\lib\\distutils\\util.py',
   'PYMODULE'),
  ('distutils.filelist',
   'c:\\users\\pental\\anaconda3\\lib\\distutils\\filelist.py',
   'PYMODULE'),
  ('distutils.debug',
   'c:\\users\\pental\\anaconda3\\lib\\distutils\\debug.py',
   'PYMODULE'),
  ('distutils.file_util',
   'c:\\users\\pental\\anaconda3\\lib\\distutils\\file_util.py',
   'PYMODULE'),
  ('distutils.dir_util',
   'c:\\users\\pental\\anaconda3\\lib\\distutils\\dir_util.py',
   'PYMODULE'),
  ('distutils.spawn',
   'c:\\users\\pental\\anaconda3\\lib\\distutils\\spawn.py',
   'PYMODULE'),
  ('distutils.dep_util',
   'c:\\users\\pental\\anaconda3\\lib\\distutils\\dep_util.py',
   'PYMODULE'),
  ('distutils',
   'c:\\users\\pental\\anaconda3\\lib\\distutils\\__init__.py',
   'PYMODULE'),
  ('distutils.ccompiler',
   'c:\\users\\pental\\anaconda3\\lib\\distutils\\ccompiler.py',
   'PYMODULE'),
  ('distutils.fancy_getopt',
   'c:\\users\\pental\\anaconda3\\lib\\distutils\\fancy_getopt.py',
   'PYMODULE'),
  ('distutils.errors',
   'c:\\users\\pental\\anaconda3\\lib\\distutils\\errors.py',
   'PYMODULE'),
  ('os', 'c:\\users\\pental\\anaconda3\\lib\\os.py', 'PYMODULE'),
  ('imp', 'c:\\users\\pental\\anaconda3\\lib\\imp.py', 'PYMODULE'),
  ('tracemalloc',
   'c:\\users\\pental\\anaconda3\\lib\\tracemalloc.py',
   'PYMODULE'),
  ('stringprep',
   'c:\\users\\pental\\anaconda3\\lib\\stringprep.py',
   'PYMODULE'),
  ('_py_abc', 'c:\\users\\pental\\anaconda3\\lib\\_py_abc.py', 'PYMODULE'),
  ('gpxpy.gpx',
   'c:\\users\\pental\\anaconda3\\lib\\site-packages\\gpxpy\\gpx.py',
   'PYMODULE'),
  ('gpxpy.gpxfield',
   'c:\\users\\pental\\anaconda3\\lib\\site-packages\\gpxpy\\gpxfield.py',
   'PYMODULE'),
  ('gpxpy.geo',
   'c:\\users\\pental\\anaconda3\\lib\\site-packages\\gpxpy\\geo.py',
   'PYMODULE'),
  ('gpxpy.utils',
   'c:\\users\\pental\\anaconda3\\lib\\site-packages\\gpxpy\\utils.py',
   'PYMODULE'),
  ('gpxpy',
   'c:\\users\\pental\\anaconda3\\lib\\site-packages\\gpxpy\\__init__.py',
   'PYMODULE'),
  ('gpxpy.parser',
   'c:\\users\\pental\\anaconda3\\lib\\site-packages\\gpxpy\\parser.py',
   'PYMODULE'),
  ('xml.etree.ElementTree',
   'c:\\users\\pental\\anaconda3\\lib\\xml\\etree\\ElementTree.py',
   'PYMODULE'),
  ('xml.etree.ElementInclude',
   'c:\\users\\pental\\anaconda3\\lib\\xml\\etree\\ElementInclude.py',
   'PYMODULE'),
  ('xml.etree.ElementPath',
   'c:\\users\\pental\\anaconda3\\lib\\xml\\etree\\ElementPath.py',
   'PYMODULE'),
  ('xml.etree',
   'c:\\users\\pental\\anaconda3\\lib\\xml\\etree\\__init__.py',
   'PYMODULE'),
  ('xml.etree.cElementTree',
   'c:\\users\\pental\\anaconda3\\lib\\xml\\etree\\cElementTree.py',
   'PYMODULE'),
  ('lxml',
   'c:\\users\\pental\\anaconda3\\lib\\site-packages\\lxml\\__init__.py',
   'PYMODULE'),
  ('lxml.ElementInclude',
   'c:\\users\\pental\\anaconda3\\lib\\site-packages\\lxml\\ElementInclude.py',
   'PYMODULE'),
  ('lxml.html._diffcommand',
   'c:\\users\\pental\\anaconda3\\lib\\site-packages\\lxml\\html\\_diffcommand.py',
   'PYMODULE'),
  ('lxml.html._setmixin',
   'c:\\users\\pental\\anaconda3\\lib\\site-packages\\lxml\\html\\_setmixin.py',
   'PYMODULE'),
  ('lxml.includes',
   'c:\\users\\pental\\anaconda3\\lib\\site-packages\\lxml\\includes\\__init__.py',
   'PYMODULE'),
  ('lxml.pyclasslookup',
   'c:\\users\\pental\\anaconda3\\lib\\site-packages\\lxml\\pyclasslookup.py',
   'PYMODULE'),
  ('lxml.isoschematron',
   'c:\\users\\pental\\anaconda3\\lib\\site-packages\\lxml\\isoschematron\\__init__.py',
   'PYMODULE'),
  ('lxml.html.usedoctest',
   'c:\\users\\pental\\anaconda3\\lib\\site-packages\\lxml\\html\\usedoctest.py',
   'PYMODULE'),
  ('lxml.html.soupparser',
   'c:\\users\\pental\\anaconda3\\lib\\site-packages\\lxml\\html\\soupparser.py',
   'PYMODULE'),
  ('bs4',
   'c:\\users\\pental\\anaconda3\\lib\\site-packages\\bs4\\__init__.py',
   'PYMODULE'),
  ('bs4.element',
   'c:\\users\\pental\\anaconda3\\lib\\site-packages\\bs4\\element.py',
   'PYMODULE'),
  ('bs4.formatter',
   'c:\\users\\pental\\anaconda3\\lib\\site-packages\\bs4\\formatter.py',
   'PYMODULE'),
  ('soupsieve',
   'c:\\users\\pental\\anaconda3\\lib\\site-packages\\soupsieve\\__init__.py',
   'PYMODULE'),
  ('soupsieve.css_parser',
   'c:\\users\\pental\\anaconda3\\lib\\site-packages\\soupsieve\\css_parser.py',
   'PYMODULE'),
  ('soupsieve.css_match',
   'c:\\users\\pental\\anaconda3\\lib\\site-packages\\soupsieve\\css_match.py',
   'PYMODULE'),
  ('soupsieve.css_types',
   'c:\\users\\pental\\anaconda3\\lib\\site-packages\\soupsieve\\css_types.py',
   'PYMODULE'),
  ('soupsieve.util',
   'c:\\users\\pental\\anaconda3\\lib\\site-packages\\soupsieve\\util.py',
   'PYMODULE'),
  ('soupsieve.__meta__',
   'c:\\users\\pental\\anaconda3\\lib\\site-packages\\soupsieve\\__meta__.py',
   'PYMODULE'),
  ('bs4.dammit',
   'c:\\users\\pental\\anaconda3\\lib\\site-packages\\bs4\\dammit.py',
   'PYMODULE'),
  ('chardet',
   'c:\\users\\pental\\anaconda3\\lib\\site-packages\\chardet\\__init__.py',
   'PYMODULE'),
  ('chardet.version',
   'c:\\users\\pental\\anaconda3\\lib\\site-packages\\chardet\\version.py',
   'PYMODULE'),
  ('chardet.universaldetector',
   'c:\\users\\pental\\anaconda3\\lib\\site-packages\\chardet\\universaldetector.py',
   'PYMODULE'),
  ('chardet.sbcsgroupprober',
   'c:\\users\\pental\\anaconda3\\lib\\site-packages\\chardet\\sbcsgroupprober.py',
   'PYMODULE'),
  ('chardet.langturkishmodel',
   'c:\\users\\pental\\anaconda3\\lib\\site-packages\\chardet\\langturkishmodel.py',
   'PYMODULE'),
  ('chardet.hebrewprober',
   'c:\\users\\pental\\anaconda3\\lib\\site-packages\\chardet\\hebrewprober.py',
   'PYMODULE'),
  ('chardet.charsetprober',
   'c:\\users\\pental\\anaconda3\\lib\\site-packages\\chardet\\charsetprober.py',
   'PYMODULE'),
  ('chardet.langhebrewmodel',
   'c:\\users\\pental\\anaconda3\\lib\\site-packages\\chardet\\langhebrewmodel.py',
   'PYMODULE'),
  ('chardet.langthaimodel',
   'c:\\users\\pental\\anaconda3\\lib\\site-packages\\chardet\\langthaimodel.py',
   'PYMODULE'),
  ('chardet.langbulgarianmodel',
   'c:\\users\\pental\\anaconda3\\lib\\site-packages\\chardet\\langbulgarianmodel.py',
   'PYMODULE'),
  ('chardet.langgreekmodel',
   'c:\\users\\pental\\anaconda3\\lib\\site-packages\\chardet\\langgreekmodel.py',
   'PYMODULE'),
  ('chardet.langcyrillicmodel',
   'c:\\users\\pental\\anaconda3\\lib\\site-packages\\chardet\\langcyrillicmodel.py',
   'PYMODULE'),
  ('chardet.sbcharsetprober',
   'c:\\users\\pental\\anaconda3\\lib\\site-packages\\chardet\\sbcharsetprober.py',
   'PYMODULE'),
  ('chardet.mbcsgroupprober',
   'c:\\users\\pental\\anaconda3\\lib\\site-packages\\chardet\\mbcsgroupprober.py',
   'PYMODULE'),
  ('chardet.euctwprober',
   'c:\\users\\pental\\anaconda3\\lib\\site-packages\\chardet\\euctwprober.py',
   'PYMODULE'),
  ('chardet.mbcssm',
   'c:\\users\\pental\\anaconda3\\lib\\site-packages\\chardet\\mbcssm.py',
   'PYMODULE'),
  ('chardet.chardistribution',
   'c:\\users\\pental\\anaconda3\\lib\\site-packages\\chardet\\chardistribution.py',
   'PYMODULE'),
  ('chardet.jisfreq',
   'c:\\users\\pental\\anaconda3\\lib\\site-packages\\chardet\\jisfreq.py',
   'PYMODULE'),
  ('chardet.big5freq',
   'c:\\users\\pental\\anaconda3\\lib\\site-packages\\chardet\\big5freq.py',
   'PYMODULE'),
  ('chardet.gb2312freq',
   'c:\\users\\pental\\anaconda3\\lib\\site-packages\\chardet\\gb2312freq.py',
   'PYMODULE'),
  ('chardet.euckrfreq',
   'c:\\users\\pental\\anaconda3\\lib\\site-packages\\chardet\\euckrfreq.py',
   'PYMODULE'),
  ('chardet.euctwfreq',
   'c:\\users\\pental\\anaconda3\\lib\\site-packages\\chardet\\euctwfreq.py',
   'PYMODULE'),
  ('chardet.codingstatemachine',
   'c:\\users\\pental\\anaconda3\\lib\\site-packages\\chardet\\codingstatemachine.py',
   'PYMODULE'),
  ('chardet.mbcharsetprober',
   'c:\\users\\pental\\anaconda3\\lib\\site-packages\\chardet\\mbcharsetprober.py',
   'PYMODULE'),
  ('chardet.big5prober',
   'c:\\users\\pental\\anaconda3\\lib\\site-packages\\chardet\\big5prober.py',
   'PYMODULE'),
  ('chardet.cp949prober',
   'c:\\users\\pental\\anaconda3\\lib\\site-packages\\chardet\\cp949prober.py',
   'PYMODULE'),
  ('chardet.euckrprober',
   'c:\\users\\pental\\anaconda3\\lib\\site-packages\\chardet\\euckrprober.py',
   'PYMODULE'),
  ('chardet.gb2312prober',
   'c:\\users\\pental\\anaconda3\\lib\\site-packages\\chardet\\gb2312prober.py',
   'PYMODULE'),
  ('chardet.eucjpprober',
   'c:\\users\\pental\\anaconda3\\lib\\site-packages\\chardet\\eucjpprober.py',
   'PYMODULE'),
  ('chardet.jpcntx',
   'c:\\users\\pental\\anaconda3\\lib\\site-packages\\chardet\\jpcntx.py',
   'PYMODULE'),
  ('chardet.sjisprober',
   'c:\\users\\pental\\anaconda3\\lib\\site-packages\\chardet\\sjisprober.py',
   'PYMODULE'),
  ('chardet.utf8prober',
   'c:\\users\\pental\\anaconda3\\lib\\site-packages\\chardet\\utf8prober.py',
   'PYMODULE'),
  ('chardet.latin1prober',
   'c:\\users\\pental\\anaconda3\\lib\\site-packages\\chardet\\latin1prober.py',
   'PYMODULE'),
  ('chardet.escprober',
   'c:\\users\\pental\\anaconda3\\lib\\site-packages\\chardet\\escprober.py',
   'PYMODULE'),
  ('chardet.escsm',
   'c:\\users\\pental\\anaconda3\\lib\\site-packages\\chardet\\escsm.py',
   'PYMODULE'),
  ('chardet.enums',
   'c:\\users\\pental\\anaconda3\\lib\\site-packages\\chardet\\enums.py',
   'PYMODULE'),
  ('chardet.charsetgroupprober',
   'c:\\users\\pental\\anaconda3\\lib\\site-packages\\chardet\\charsetgroupprober.py',
   'PYMODULE'),
  ('chardet.compat',
   'c:\\users\\pental\\anaconda3\\lib\\site-packages\\chardet\\compat.py',
   'PYMODULE'),
  ('bs4.builder',
   'c:\\users\\pental\\anaconda3\\lib\\site-packages\\bs4\\builder\\__init__.py',
   'PYMODULE'),
  ('bs4.builder._lxml',
   'c:\\users\\pental\\anaconda3\\lib\\site-packages\\bs4\\builder\\_lxml.py',
   'PYMODULE'),
  ('bs4.builder._html5lib',
   'c:\\users\\pental\\anaconda3\\lib\\site-packages\\bs4\\builder\\_html5lib.py',
   'PYMODULE'),
  ('html5lib.treebuilders.base',
   'c:\\users\\pental\\anaconda3\\lib\\site-packages\\html5lib\\treebuilders\\base.py',
   'PYMODULE'),
  ('six',
   'c:\\users\\pental\\anaconda3\\lib\\site-packages\\six.py',
   'PYMODULE'),
  ('html5lib.treebuilders',
   'c:\\users\\pental\\anaconda3\\lib\\site-packages\\html5lib\\treebuilders\\__init__.py',
   'PYMODULE'),
  ('html5lib.treebuilders.etree_lxml',
   'c:\\users\\pental\\anaconda3\\lib\\site-packages\\html5lib\\treebuilders\\etree_lxml.py',
   'PYMODULE'),
  ('html5lib._ihatexml',
   'c:\\users\\pental\\anaconda3\\lib\\site-packages\\html5lib\\_ihatexml.py',
   'PYMODULE'),
  ('html5lib.treebuilders.etree',
   'c:\\users\\pental\\anaconda3\\lib\\site-packages\\html5lib\\treebuilders\\etree.py',
   'PYMODULE'),
  ('xml.dom.minidom',
   'c:\\users\\pental\\anaconda3\\lib\\xml\\dom\\minidom.py',
   'PYMODULE'),
  ('xml.dom.pulldom',
   'c:\\users\\pental\\anaconda3\\lib\\xml\\dom\\pulldom.py',
   'PYMODULE'),
  ('xml.dom.expatbuilder',
   'c:\\users\\pental\\anaconda3\\lib\\xml\\dom\\expatbuilder.py',
   'PYMODULE'),
  ('xml.dom.NodeFilter',
   'c:\\users\\pental\\anaconda3\\lib\\xml\\dom\\NodeFilter.py',
   'PYMODULE'),
  ('xml.dom.xmlbuilder',
   'c:\\users\\pental\\anaconda3\\lib\\xml\\dom\\xmlbuilder.py',
   'PYMODULE'),
  ('xml.dom.minicompat',
   'c:\\users\\pental\\anaconda3\\lib\\xml\\dom\\minicompat.py',
   'PYMODULE'),
  ('xml.dom.domreg',
   'c:\\users\\pental\\anaconda3\\lib\\xml\\dom\\domreg.py',
   'PYMODULE'),
  ('xml.dom',
   'c:\\users\\pental\\anaconda3\\lib\\xml\\dom\\__init__.py',
   'PYMODULE'),
  ('html5lib.treebuilders.dom',
   'c:\\users\\pental\\anaconda3\\lib\\site-packages\\html5lib\\treebuilders\\dom.py',
   'PYMODULE'),
  ('html5lib._utils',
   'c:\\users\\pental\\anaconda3\\lib\\site-packages\\html5lib\\_utils.py',
   'PYMODULE'),
  ('html5lib.constants',
   'c:\\users\\pental\\anaconda3\\lib\\site-packages\\html5lib\\constants.py',
   'PYMODULE'),
  ('html5lib',
   'c:\\users\\pental\\anaconda3\\lib\\site-packages\\html5lib\\__init__.py',
   'PYMODULE'),
  ('html5lib.serializer',
   'c:\\users\\pental\\anaconda3\\lib\\site-packages\\html5lib\\serializer.py',
   'PYMODULE'),
  ('html5lib.filters.optionaltags',
   'c:\\users\\pental\\anaconda3\\lib\\site-packages\\html5lib\\filters\\optionaltags.py',
   'PYMODULE'),
  ('html5lib.filters.base',
   'c:\\users\\pental\\anaconda3\\lib\\site-packages\\html5lib\\filters\\base.py',
   'PYMODULE'),
  ('html5lib.filters',
   'c:\\users\\pental\\anaconda3\\lib\\site-packages\\html5lib\\filters\\__init__.py',
   'PYMODULE'),
  ('html5lib.filters.sanitizer',
   'c:\\users\\pental\\anaconda3\\lib\\site-packages\\html5lib\\filters\\sanitizer.py',
   'PYMODULE'),
  ('html5lib.filters.whitespace',
   'c:\\users\\pental\\anaconda3\\lib\\site-packages\\html5lib\\filters\\whitespace.py',
   'PYMODULE'),
  ('html5lib.filters.alphabeticalattributes',
   'c:\\users\\pental\\anaconda3\\lib\\site-packages\\html5lib\\filters\\alphabeticalattributes.py',
   'PYMODULE'),
  ('html5lib.filters.inject_meta_charset',
   'c:\\users\\pental\\anaconda3\\lib\\site-packages\\html5lib\\filters\\inject_meta_charset.py',
   'PYMODULE'),
  ('html5lib.treewalkers',
   'c:\\users\\pental\\anaconda3\\lib\\site-packages\\html5lib\\treewalkers\\__init__.py',
   'PYMODULE'),
  ('html5lib.treewalkers.etree',
   'c:\\users\\pental\\anaconda3\\lib\\site-packages\\html5lib\\treewalkers\\etree.py',
   'PYMODULE'),
  ('html5lib.treewalkers.etree_lxml',
   'c:\\users\\pental\\anaconda3\\lib\\site-packages\\html5lib\\treewalkers\\etree_lxml.py',
   'PYMODULE'),
  ('html5lib.treewalkers.genshi',
   'c:\\users\\pental\\anaconda3\\lib\\site-packages\\html5lib\\treewalkers\\genshi.py',
   'PYMODULE'),
  ('html5lib.treewalkers.dom',
   'c:\\users\\pental\\anaconda3\\lib\\site-packages\\html5lib\\treewalkers\\dom.py',
   'PYMODULE'),
  ('html5lib.treewalkers.base',
   'c:\\users\\pental\\anaconda3\\lib\\site-packages\\html5lib\\treewalkers\\base.py',
   'PYMODULE'),
  ('html5lib.html5parser',
   'c:\\users\\pental\\anaconda3\\lib\\site-packages\\html5lib\\html5parser.py',
   'PYMODULE'),
  ('html5lib._tokenizer',
   'c:\\users\\pental\\anaconda3\\lib\\site-packages\\html5lib\\_tokenizer.py',
   'PYMODULE'),
  ('html5lib._trie',
   'c:\\users\\pental\\anaconda3\\lib\\site-packages\\html5lib\\_trie\\__init__.py',
   'PYMODULE'),
  ('html5lib._trie.py',
   'c:\\users\\pental\\anaconda3\\lib\\site-packages\\html5lib\\_trie\\py.py',
   'PYMODULE'),
  ('html5lib._trie._base',
   'c:\\users\\pental\\anaconda3\\lib\\site-packages\\html5lib\\_trie\\_base.py',
   'PYMODULE'),
  ('html5lib._inputstream',
   'c:\\users\\pental\\anaconda3\\lib\\site-packages\\html5lib\\_inputstream.py',
   'PYMODULE'),
  ('webencodings',
   'c:\\users\\pental\\anaconda3\\lib\\site-packages\\webencodings\\__init__.py',
   'PYMODULE'),
  ('webencodings.x_user_defined',
   'c:\\users\\pental\\anaconda3\\lib\\site-packages\\webencodings\\x_user_defined.py',
   'PYMODULE'),
  ('webencodings.labels',
   'c:\\users\\pental\\anaconda3\\lib\\site-packages\\webencodings\\labels.py',
   'PYMODULE'),
  ('bs4.builder._htmlparser',
   'c:\\users\\pental\\anaconda3\\lib\\site-packages\\bs4\\builder\\_htmlparser.py',
   'PYMODULE'),
  ('html.parser',
   'c:\\users\\pental\\anaconda3\\lib\\html\\parser.py',
   'PYMODULE'),
  ('_markupbase',
   'c:\\users\\pental\\anaconda3\\lib\\_markupbase.py',
   'PYMODULE'),
  ('lxml.usedoctest',
   'c:\\users\\pental\\anaconda3\\lib\\site-packages\\lxml\\usedoctest.py',
   'PYMODULE'),
  ('lxml.cssselect',
   'c:\\users\\pental\\anaconda3\\lib\\site-packages\\lxml\\cssselect.py',
   'PYMODULE'),
  ('lxml.html.formfill',
   'c:\\users\\pental\\anaconda3\\lib\\site-packages\\lxml\\html\\formfill.py',
   'PYMODULE'),
  ('lxml.html.defs',
   'c:\\users\\pental\\anaconda3\\lib\\site-packages\\lxml\\html\\defs.py',
   'PYMODULE'),
  ('lxml.html',
   'c:\\users\\pental\\anaconda3\\lib\\site-packages\\lxml\\html\\__init__.py',
   'PYMODULE'),
  ('lxml.html._html5builder',
   'c:\\users\\pental\\anaconda3\\lib\\site-packages\\lxml\\html\\_html5builder.py',
   'PYMODULE'),
  ('lxml.html.builder',
   'c:\\users\\pental\\anaconda3\\lib\\site-packages\\lxml\\html\\builder.py',
   'PYMODULE'),
  ('lxml.doctestcompare',
   'c:\\users\\pental\\anaconda3\\lib\\site-packages\\lxml\\doctestcompare.py',
   'PYMODULE'),
  ('cgi', 'c:\\users\\pental\\anaconda3\\lib\\cgi.py', 'PYMODULE'),
  ('lxml.html.ElementSoup',
   'c:\\users\\pental\\anaconda3\\lib\\site-packages\\lxml\\html\\ElementSoup.py',
   'PYMODULE'),
  ('lxml.html.html5parser',
   'c:\\users\\pental\\anaconda3\\lib\\site-packages\\lxml\\html\\html5parser.py',
   'PYMODULE')],
 [('api-ms-win-crt-heap-l1-1-0.dll',
   'c:\\users\\pental\\anaconda3\\api-ms-win-crt-heap-l1-1-0.dll',
   'BINARY'),
  ('VCRUNTIME140.dll',
   'c:\\users\\pental\\anaconda3\\VCRUNTIME140.dll',
   'BINARY'),
  ('python38.dll', 'c:\\users\\pental\\anaconda3\\python38.dll', 'BINARY'),
  ('api-ms-win-crt-math-l1-1-0.dll',
   'c:\\users\\pental\\anaconda3\\api-ms-win-crt-math-l1-1-0.dll',
   'BINARY'),
  ('api-ms-win-crt-locale-l1-1-0.dll',
   'c:\\users\\pental\\anaconda3\\api-ms-win-crt-locale-l1-1-0.dll',
   'BINARY'),
  ('api-ms-win-crt-stdio-l1-1-0.dll',
   'c:\\users\\pental\\anaconda3\\api-ms-win-crt-stdio-l1-1-0.dll',
   'BINARY'),
  ('api-ms-win-crt-runtime-l1-1-0.dll',
   'c:\\users\\pental\\anaconda3\\api-ms-win-crt-runtime-l1-1-0.dll',
   'BINARY'),
  ('ucrtbase.dll', 'c:\\users\\pental\\anaconda3\\ucrtbase.dll', 'BINARY'),
  ('api-ms-win-crt-string-l1-1-0.dll',
   'c:\\users\\pental\\anaconda3\\api-ms-win-crt-string-l1-1-0.dll',
   'BINARY'),
  ('api-ms-win-crt-convert-l1-1-0.dll',
   'c:\\users\\pental\\anaconda3\\api-ms-win-crt-convert-l1-1-0.dll',
   'BINARY'),
  ('api-ms-win-crt-time-l1-1-0.dll',
   'c:\\users\\pental\\anaconda3\\api-ms-win-crt-time-l1-1-0.dll',
   'BINARY'),
  ('api-ms-win-crt-conio-l1-1-0.dll',
   'c:\\users\\pental\\anaconda3\\api-ms-win-crt-conio-l1-1-0.dll',
   'BINARY'),
  ('api-ms-win-crt-process-l1-1-0.dll',
   'c:\\users\\pental\\anaconda3\\api-ms-win-crt-process-l1-1-0.dll',
   'BINARY'),
  ('api-ms-win-crt-filesystem-l1-1-0.dll',
   'c:\\users\\pental\\anaconda3\\api-ms-win-crt-filesystem-l1-1-0.dll',
   'BINARY'),
  ('api-ms-win-crt-environment-l1-1-0.dll',
   'c:\\users\\pental\\anaconda3\\api-ms-win-crt-environment-l1-1-0.dll',
   'BINARY'),
  ('api-ms-win-core-heap-l1-1-0.dll',
   'c:\\users\\pental\\anaconda3\\api-ms-win-core-heap-l1-1-0.dll',
   'BINARY'),
  ('api-ms-win-core-memory-l1-1-0.dll',
   'c:\\users\\pental\\anaconda3\\api-ms-win-core-memory-l1-1-0.dll',
   'BINARY'),
  ('api-ms-win-core-libraryloader-l1-1-0.dll',
   'c:\\users\\pental\\anaconda3\\api-ms-win-core-libraryloader-l1-1-0.dll',
   'BINARY'),
  ('api-ms-win-core-errorhandling-l1-1-0.dll',
   'c:\\users\\pental\\anaconda3\\api-ms-win-core-errorhandling-l1-1-0.dll',
   'BINARY'),
  ('api-ms-win-core-datetime-l1-1-0.dll',
   'c:\\users\\pental\\anaconda3\\api-ms-win-core-datetime-l1-1-0.dll',
   'BINARY'),
  ('api-ms-win-core-interlocked-l1-1-0.dll',
   'c:\\users\\pental\\anaconda3\\api-ms-win-core-interlocked-l1-1-0.dll',
   'BINARY'),
  ('api-ms-win-core-file-l2-1-0.dll',
   'c:\\users\\pental\\anaconda3\\api-ms-win-core-file-l2-1-0.dll',
   'BINARY'),
  ('api-ms-win-core-string-l1-1-0.dll',
   'c:\\users\\pental\\anaconda3\\api-ms-win-core-string-l1-1-0.dll',
   'BINARY'),
  ('api-ms-win-core-console-l1-1-0.dll',
   'c:\\users\\pental\\anaconda3\\api-ms-win-core-console-l1-1-0.dll',
   'BINARY'),
  ('api-ms-win-core-synch-l1-1-0.dll',
   'c:\\users\\pental\\anaconda3\\api-ms-win-core-synch-l1-1-0.dll',
   'BINARY'),
  ('api-ms-win-core-processthreads-l1-1-1.dll',
   'c:\\users\\pental\\anaconda3\\api-ms-win-core-processthreads-l1-1-1.dll',
   'BINARY'),
  ('api-ms-win-core-sysinfo-l1-1-0.dll',
   'c:\\users\\pental\\anaconda3\\api-ms-win-core-sysinfo-l1-1-0.dll',
   'BINARY'),
  ('api-ms-win-core-processthreads-l1-1-0.dll',
   'c:\\users\\pental\\anaconda3\\api-ms-win-core-processthreads-l1-1-0.dll',
   'BINARY'),
  ('api-ms-win-core-timezone-l1-1-0.dll',
   'c:\\users\\pental\\anaconda3\\api-ms-win-core-timezone-l1-1-0.dll',
   'BINARY'),
  ('api-ms-win-core-profile-l1-1-0.dll',
   'c:\\users\\pental\\anaconda3\\api-ms-win-core-profile-l1-1-0.dll',
   'BINARY'),
  ('api-ms-win-core-rtlsupport-l1-1-0.dll',
   'c:\\users\\pental\\anaconda3\\api-ms-win-core-rtlsupport-l1-1-0.dll',
   'BINARY'),
  ('api-ms-win-core-util-l1-1-0.dll',
   'c:\\users\\pental\\anaconda3\\api-ms-win-core-util-l1-1-0.dll',
   'BINARY'),
  ('api-ms-win-core-processenvironment-l1-1-0.dll',
   'c:\\users\\pental\\anaconda3\\api-ms-win-core-processenvironment-l1-1-0.dll',
   'BINARY'),
  ('api-ms-win-core-synch-l1-2-0.dll',
   'c:\\users\\pental\\anaconda3\\api-ms-win-core-synch-l1-2-0.dll',
   'BINARY'),
  ('api-ms-win-core-file-l1-2-0.dll',
   'c:\\users\\pental\\anaconda3\\api-ms-win-core-file-l1-2-0.dll',
   'BINARY'),
  ('api-ms-win-core-localization-l1-2-0.dll',
   'c:\\users\\pental\\anaconda3\\api-ms-win-core-localization-l1-2-0.dll',
   'BINARY'),
  ('api-ms-win-core-namedpipe-l1-1-0.dll',
   'c:\\users\\pental\\anaconda3\\api-ms-win-core-namedpipe-l1-1-0.dll',
   'BINARY'),
  ('api-ms-win-core-debug-l1-1-0.dll',
   'c:\\users\\pental\\anaconda3\\api-ms-win-core-debug-l1-1-0.dll',
   'BINARY'),
  ('api-ms-win-core-file-l1-1-0.dll',
   'c:\\users\\pental\\anaconda3\\api-ms-win-core-file-l1-1-0.dll',
   'BINARY'),
  ('api-ms-win-core-handle-l1-1-0.dll',
   'c:\\users\\pental\\anaconda3\\api-ms-win-core-handle-l1-1-0.dll',
   'BINARY'),
  ('select', 'c:\\users\\pental\\anaconda3\\DLLs\\select.pyd', 'EXTENSION'),
  ('_socket', 'c:\\users\\pental\\anaconda3\\DLLs\\_socket.pyd', 'EXTENSION'),
  ('_overlapped',
   'c:\\users\\pental\\anaconda3\\DLLs\\_overlapped.pyd',
   'EXTENSION'),
  ('_ssl', 'c:\\users\\pental\\anaconda3\\DLLs\\_ssl.pyd', 'EXTENSION'),
  ('_asyncio', 'c:\\users\\pental\\anaconda3\\DLLs\\_asyncio.pyd', 'EXTENSION'),
  ('_queue', 'c:\\users\\pental\\anaconda3\\DLLs\\_queue.pyd', 'EXTENSION'),
  ('unicodedata',
   'c:\\users\\pental\\anaconda3\\DLLs\\unicodedata.pyd',
   'EXTENSION'),
  ('_lzma', 'c:\\users\\pental\\anaconda3\\DLLs\\_lzma.pyd', 'EXTENSION'),
  ('_bz2', 'c:\\users\\pental\\anaconda3\\DLLs\\_bz2.pyd', 'EXTENSION'),
  ('_ctypes', 'c:\\users\\pental\\anaconda3\\DLLs\\_ctypes.pyd', 'EXTENSION'),
  ('_multiprocessing',
   'c:\\users\\pental\\anaconda3\\DLLs\\_multiprocessing.pyd',
   'EXTENSION'),
  ('pyexpat', 'c:\\users\\pental\\anaconda3\\DLLs\\pyexpat.pyd', 'EXTENSION'),
  ('_decimal', 'c:\\users\\pental\\anaconda3\\DLLs\\_decimal.pyd', 'EXTENSION'),
  ('win32evtlog',
   'c:\\users\\pental\\anaconda3\\lib\\site-packages\\win32\\win32evtlog.pyd',
   'EXTENSION'),
  ('win32api',
   'c:\\users\\pental\\anaconda3\\lib\\site-packages\\win32\\win32api.pyd',
   'EXTENSION'),
  ('_hashlib', 'c:\\users\\pental\\anaconda3\\DLLs\\_hashlib.pyd', 'EXTENSION'),
  ('_win32sysloader',
   'c:\\users\\pental\\anaconda3\\lib\\site-packages\\win32\\_win32sysloader.pyd',
   'EXTENSION'),
  ('_elementtree',
   'c:\\users\\pental\\anaconda3\\DLLs\\_elementtree.pyd',
   'EXTENSION'),
  ('lxml.etree',
   'c:\\users\\pental\\anaconda3\\lib\\site-packages\\lxml\\etree.cp38-win_amd64.pyd',
   'EXTENSION'),
  ('lxml._elementpath',
   'c:\\users\\pental\\anaconda3\\lib\\site-packages\\lxml\\_elementpath.cp38-win_amd64.pyd',
   'EXTENSION'),
  ('lxml.builder',
   'c:\\users\\pental\\anaconda3\\lib\\site-packages\\lxml\\builder.cp38-win_amd64.pyd',
   'EXTENSION'),
  ('lxml.html.clean',
   'c:\\users\\pental\\anaconda3\\lib\\site-packages\\lxml\\html\\clean.cp38-win_amd64.pyd',
   'EXTENSION'),
  ('lxml.html.diff',
   'c:\\users\\pental\\anaconda3\\lib\\site-packages\\lxml\\html\\diff.cp38-win_amd64.pyd',
   'EXTENSION'),
  ('lxml.objectify',
   'c:\\users\\pental\\anaconda3\\lib\\site-packages\\lxml\\objectify.cp38-win_amd64.pyd',
   'EXTENSION'),
  ('lxml.sax',
   'c:\\users\\pental\\anaconda3\\lib\\site-packages\\lxml\\sax.cp38-win_amd64.pyd',
   'EXTENSION'),
  ('libcrypto-1_1-x64.dll',
   'C:\\Users\\pental\\anaconda3\\Library\\bin\\libcrypto-1_1-x64.dll',
   'BINARY'),
  ('libssl-1_1-x64.dll',
   'C:\\Users\\pental\\anaconda3\\Library\\bin\\libssl-1_1-x64.dll',
   'BINARY'),
  ('libffi-7.dll',
   'c:\\users\\pental\\anaconda3\\DLLs\\libffi-7.dll',
   'BINARY'),
  ('api-ms-win-crt-utility-l1-1-0.dll',
   'c:\\users\\pental\\anaconda3\\api-ms-win-crt-utility-l1-1-0.dll',
   'BINARY'),
  ('pywintypes38.dll',
   'c:\\users\\pental\\anaconda3\\lib\\site-packages\\win32\\pywintypes38.dll',
   'BINARY'),
  ('libexslt.dll',
   'C:\\Users\\pental\\anaconda3\\Library\\bin\\libexslt.dll',
   'BINARY'),
  ('libxml2.dll',
   'C:\\Users\\pental\\anaconda3\\Library\\bin\\libxml2.dll',
   'BINARY'),
  ('libxslt.dll',
   'C:\\Users\\pental\\anaconda3\\Library\\bin\\libxslt.dll',
   'BINARY'),
  ('zlib.dll',
   'C:\\Users\\pental\\anaconda3\\Library\\bin\\zlib.dll',
   'BINARY'),
  ('iconv.dll',
   'C:\\Users\\pental\\anaconda3\\Library\\bin\\iconv.dll',
   'BINARY'),
  ('charset.dll',
   'C:\\Users\\pental\\anaconda3\\Library\\bin\\charset.dll',
   'BINARY')],
 [],
 [],
 [('base_library.zip',
   'C:\\Users\\pental\\PythonProject\\build\\GPXInvert2\\base_library.zip',
   'DATA'),
  ('lxml\\isoschematron\\resources\\xsl\\iso-schematron-xslt1\\iso_dsdl_include.xsl',
   'c:\\users\\pental\\anaconda3\\lib\\site-packages\\lxml\\isoschematron\\resources\\xsl\\iso-schematron-xslt1\\iso_dsdl_include.xsl',
   'DATA'),
  ('lxml\\isoschematron\\resources\\xsl\\iso-schematron-xslt1\\iso_schematron_skeleton_for_xslt1.xsl',
   'c:\\users\\pental\\anaconda3\\lib\\site-packages\\lxml\\isoschematron\\resources\\xsl\\iso-schematron-xslt1\\iso_schematron_skeleton_for_xslt1.xsl',
   'DATA'),
  ('lxml\\isoschematron\\resources\\xsl\\iso-schematron-xslt1\\iso_schematron_message.xsl',
   'c:\\users\\pental\\anaconda3\\lib\\site-packages\\lxml\\isoschematron\\resources\\xsl\\iso-schematron-xslt1\\iso_schematron_message.xsl',
   'DATA'),
  ('lxml\\isoschematron\\resources\\xsl\\iso-schematron-xslt1\\iso_svrl_for_xslt1.xsl',
   'c:\\users\\pental\\anaconda3\\lib\\site-packages\\lxml\\isoschematron\\resources\\xsl\\iso-schematron-xslt1\\iso_svrl_for_xslt1.xsl',
   'DATA'),
  ('lxml\\isoschematron\\resources\\rng\\iso-schematron.rng',
   'c:\\users\\pental\\anaconda3\\lib\\site-packages\\lxml\\isoschematron\\resources\\rng\\iso-schematron.rng',
   'DATA'),
  ('lxml\\isoschematron\\resources\\xsl\\iso-schematron-xslt1\\readme.txt',
   'c:\\users\\pental\\anaconda3\\lib\\site-packages\\lxml\\isoschematron\\resources\\xsl\\iso-schematron-xslt1\\readme.txt',
   'DATA'),
  ('lxml\\isoschematron\\resources\\xsl\\XSD2Schtrn.xsl',
   'c:\\users\\pental\\anaconda3\\lib\\site-packages\\lxml\\isoschematron\\resources\\xsl\\XSD2Schtrn.xsl',
   'DATA'),
  ('lxml\\isoschematron\\resources\\xsl\\iso-schematron-xslt1\\iso_abstract_expand.xsl',
   'c:\\users\\pental\\anaconda3\\lib\\site-packages\\lxml\\isoschematron\\resources\\xsl\\iso-schematron-xslt1\\iso_abstract_expand.xsl',
   'DATA'),
  ('lxml\\isoschematron\\resources\\xsl\\RNG2Schtrn.xsl',
   'c:\\users\\pental\\anaconda3\\lib\\site-packages\\lxml\\isoschematron\\resources\\xsl\\RNG2Schtrn.xsl',
   'DATA')],
 [])
