('C:\\Users\\pental\\PythonProject\\build\\GPXInvert2\\PKG-00.pkg',
 {'BINARY': 1,
  'DATA': 1,
  'EXECUTABLE': 1,
  'EXTENSION': 1,
  'PYMODULE': 1,
  'PYSOURCE': 1,
  'PYZ': 0},
 [('PYZ-00.pyz',
   'C:\\Users\\pental\\PythonProject\\build\\GPXInvert2\\PYZ-00.pyz',
   'PYZ'),
  ('struct', 'c:\\users\\pental\\anaconda3\\lib\\struct.pyo', 'PYMODULE'),
  ('pyimod01_os_path',
   'c:\\users\\pental\\anaconda3\\lib\\site-packages\\PyInstaller\\loader\\pyimod01_os_path.pyc',
   'PYMODULE'),
  ('pyimod02_archive',
   'c:\\users\\pental\\anaconda3\\lib\\site-packages\\PyInstaller\\loader\\pyimod02_archive.pyc',
   'PYMODULE'),
  ('pyimod03_importers',
   'c:\\users\\pental\\anaconda3\\lib\\site-packages\\PyInstaller\\loader\\pyimod03_importers.pyc',
   'PYMODULE'),
  ('pyiboot01_bootstrap',
   'c:\\users\\pental\\anaconda3\\lib\\site-packages\\PyInstaller\\loader\\pyiboot01_bootstrap.py',
   'PYSOURCE'),
  ('pyi_rth_multiprocessing',
   'C:\\Users\\pental\\anaconda3\\Lib\\site-packages\\PyInstaller\\hooks\\rthooks\\pyi_rth_multiprocessing.py',
   'PYSOURCE'),
  ('pyi_rth_win32api',
   'C:\\Users\\pental\\anaconda3\\Lib\\site-packages\\PyInstaller\\hooks\\rthooks\\pyi_rth_win32api.py',
   'PYSOURCE'),
  ('GPXInvert2', 'C:\\Users\\pental\\PythonProject\\GPXInvert2.py', 'PYSOURCE'),
  ('api-ms-win-crt-heap-l1-1-0.dll',
   'c:\\users\\pental\\anaconda3\\api-ms-win-crt-heap-l1-1-0.dll',
   'BINARY'),
  ('VCRUNTIME140.dll',
   'c:\\users\\pental\\anaconda3\\VCRUNTIME140.dll',
   'BINARY'),
  ('python38.dll', 'c:\\users\\pental\\anaconda3\\python38.dll', 'BINARY'),
  ('api-ms-win-crt-math-l1-1-0.dll',
   'c:\\users\\pental\\anaconda3\\api-ms-win-crt-math-l1-1-0.dll',
   'BINARY'),
  ('api-ms-win-crt-locale-l1-1-0.dll',
   'c:\\users\\pental\\anaconda3\\api-ms-win-crt-locale-l1-1-0.dll',
   'BINARY'),
  ('api-ms-win-crt-stdio-l1-1-0.dll',
   'c:\\users\\pental\\anaconda3\\api-ms-win-crt-stdio-l1-1-0.dll',
   'BINARY'),
  ('api-ms-win-crt-runtime-l1-1-0.dll',
   'c:\\users\\pental\\anaconda3\\api-ms-win-crt-runtime-l1-1-0.dll',
   'BINARY'),
  ('ucrtbase.dll', 'c:\\users\\pental\\anaconda3\\ucrtbase.dll', 'BINARY'),
  ('api-ms-win-crt-string-l1-1-0.dll',
   'c:\\users\\pental\\anaconda3\\api-ms-win-crt-string-l1-1-0.dll',
   'BINARY'),
  ('api-ms-win-crt-convert-l1-1-0.dll',
   'c:\\users\\pental\\anaconda3\\api-ms-win-crt-convert-l1-1-0.dll',
   'BINARY'),
  ('api-ms-win-crt-time-l1-1-0.dll',
   'c:\\users\\pental\\anaconda3\\api-ms-win-crt-time-l1-1-0.dll',
   'BINARY'),
  ('api-ms-win-crt-conio-l1-1-0.dll',
   'c:\\users\\pental\\anaconda3\\api-ms-win-crt-conio-l1-1-0.dll',
   'BINARY'),
  ('api-ms-win-crt-process-l1-1-0.dll',
   'c:\\users\\pental\\anaconda3\\api-ms-win-crt-process-l1-1-0.dll',
   'BINARY'),
  ('api-ms-win-crt-filesystem-l1-1-0.dll',
   'c:\\users\\pental\\anaconda3\\api-ms-win-crt-filesystem-l1-1-0.dll',
   'BINARY'),
  ('api-ms-win-crt-environment-l1-1-0.dll',
   'c:\\users\\pental\\anaconda3\\api-ms-win-crt-environment-l1-1-0.dll',
   'BINARY'),
  ('api-ms-win-core-heap-l1-1-0.dll',
   'c:\\users\\pental\\anaconda3\\api-ms-win-core-heap-l1-1-0.dll',
   'BINARY'),
  ('api-ms-win-core-memory-l1-1-0.dll',
   'c:\\users\\pental\\anaconda3\\api-ms-win-core-memory-l1-1-0.dll',
   'BINARY'),
  ('api-ms-win-core-libraryloader-l1-1-0.dll',
   'c:\\users\\pental\\anaconda3\\api-ms-win-core-libraryloader-l1-1-0.dll',
   'BINARY'),
  ('api-ms-win-core-errorhandling-l1-1-0.dll',
   'c:\\users\\pental\\anaconda3\\api-ms-win-core-errorhandling-l1-1-0.dll',
   'BINARY'),
  ('api-ms-win-core-datetime-l1-1-0.dll',
   'c:\\users\\pental\\anaconda3\\api-ms-win-core-datetime-l1-1-0.dll',
   'BINARY'),
  ('api-ms-win-core-interlocked-l1-1-0.dll',
   'c:\\users\\pental\\anaconda3\\api-ms-win-core-interlocked-l1-1-0.dll',
   'BINARY'),
  ('api-ms-win-core-file-l2-1-0.dll',
   'c:\\users\\pental\\anaconda3\\api-ms-win-core-file-l2-1-0.dll',
   'BINARY'),
  ('api-ms-win-core-string-l1-1-0.dll',
   'c:\\users\\pental\\anaconda3\\api-ms-win-core-string-l1-1-0.dll',
   'BINARY'),
  ('api-ms-win-core-console-l1-1-0.dll',
   'c:\\users\\pental\\anaconda3\\api-ms-win-core-console-l1-1-0.dll',
   'BINARY'),
  ('api-ms-win-core-synch-l1-1-0.dll',
   'c:\\users\\pental\\anaconda3\\api-ms-win-core-synch-l1-1-0.dll',
   'BINARY'),
  ('api-ms-win-core-processthreads-l1-1-1.dll',
   'c:\\users\\pental\\anaconda3\\api-ms-win-core-processthreads-l1-1-1.dll',
   'BINARY'),
  ('api-ms-win-core-sysinfo-l1-1-0.dll',
   'c:\\users\\pental\\anaconda3\\api-ms-win-core-sysinfo-l1-1-0.dll',
   'BINARY'),
  ('api-ms-win-core-processthreads-l1-1-0.dll',
   'c:\\users\\pental\\anaconda3\\api-ms-win-core-processthreads-l1-1-0.dll',
   'BINARY'),
  ('api-ms-win-core-timezone-l1-1-0.dll',
   'c:\\users\\pental\\anaconda3\\api-ms-win-core-timezone-l1-1-0.dll',
   'BINARY'),
  ('api-ms-win-core-profile-l1-1-0.dll',
   'c:\\users\\pental\\anaconda3\\api-ms-win-core-profile-l1-1-0.dll',
   'BINARY'),
  ('api-ms-win-core-rtlsupport-l1-1-0.dll',
   'c:\\users\\pental\\anaconda3\\api-ms-win-core-rtlsupport-l1-1-0.dll',
   'BINARY'),
  ('api-ms-win-core-util-l1-1-0.dll',
   'c:\\users\\pental\\anaconda3\\api-ms-win-core-util-l1-1-0.dll',
   'BINARY'),
  ('api-ms-win-core-processenvironment-l1-1-0.dll',
   'c:\\users\\pental\\anaconda3\\api-ms-win-core-processenvironment-l1-1-0.dll',
   'BINARY'),
  ('api-ms-win-core-synch-l1-2-0.dll',
   'c:\\users\\pental\\anaconda3\\api-ms-win-core-synch-l1-2-0.dll',
   'BINARY'),
  ('api-ms-win-core-file-l1-2-0.dll',
   'c:\\users\\pental\\anaconda3\\api-ms-win-core-file-l1-2-0.dll',
   'BINARY'),
  ('api-ms-win-core-localization-l1-2-0.dll',
   'c:\\users\\pental\\anaconda3\\api-ms-win-core-localization-l1-2-0.dll',
   'BINARY'),
  ('api-ms-win-core-namedpipe-l1-1-0.dll',
   'c:\\users\\pental\\anaconda3\\api-ms-win-core-namedpipe-l1-1-0.dll',
   'BINARY'),
  ('api-ms-win-core-debug-l1-1-0.dll',
   'c:\\users\\pental\\anaconda3\\api-ms-win-core-debug-l1-1-0.dll',
   'BINARY'),
  ('api-ms-win-core-file-l1-1-0.dll',
   'c:\\users\\pental\\anaconda3\\api-ms-win-core-file-l1-1-0.dll',
   'BINARY'),
  ('api-ms-win-core-handle-l1-1-0.dll',
   'c:\\users\\pental\\anaconda3\\api-ms-win-core-handle-l1-1-0.dll',
   'BINARY'),
  ('select', 'c:\\users\\pental\\anaconda3\\DLLs\\select.pyd', 'EXTENSION'),
  ('_socket', 'c:\\users\\pental\\anaconda3\\DLLs\\_socket.pyd', 'EXTENSION'),
  ('_overlapped',
   'c:\\users\\pental\\anaconda3\\DLLs\\_overlapped.pyd',
   'EXTENSION'),
  ('_ssl', 'c:\\users\\pental\\anaconda3\\DLLs\\_ssl.pyd', 'EXTENSION'),
  ('_asyncio', 'c:\\users\\pental\\anaconda3\\DLLs\\_asyncio.pyd', 'EXTENSION'),
  ('_queue', 'c:\\users\\pental\\anaconda3\\DLLs\\_queue.pyd', 'EXTENSION'),
  ('unicodedata',
   'c:\\users\\pental\\anaconda3\\DLLs\\unicodedata.pyd',
   'EXTENSION'),
  ('_lzma', 'c:\\users\\pental\\anaconda3\\DLLs\\_lzma.pyd', 'EXTENSION'),
  ('_bz2', 'c:\\users\\pental\\anaconda3\\DLLs\\_bz2.pyd', 'EXTENSION'),
  ('_ctypes', 'c:\\users\\pental\\anaconda3\\DLLs\\_ctypes.pyd', 'EXTENSION'),
  ('_multiprocessing',
   'c:\\users\\pental\\anaconda3\\DLLs\\_multiprocessing.pyd',
   'EXTENSION'),
  ('pyexpat', 'c:\\users\\pental\\anaconda3\\DLLs\\pyexpat.pyd', 'EXTENSION'),
  ('_decimal', 'c:\\users\\pental\\anaconda3\\DLLs\\_decimal.pyd', 'EXTENSION'),
  ('win32evtlog',
   'c:\\users\\pental\\anaconda3\\lib\\site-packages\\win32\\win32evtlog.pyd',
   'EXTENSION'),
  ('win32api',
   'c:\\users\\pental\\anaconda3\\lib\\site-packages\\win32\\win32api.pyd',
   'EXTENSION'),
  ('_hashlib', 'c:\\users\\pental\\anaconda3\\DLLs\\_hashlib.pyd', 'EXTENSION'),
  ('_win32sysloader',
   'c:\\users\\pental\\anaconda3\\lib\\site-packages\\win32\\_win32sysloader.pyd',
   'EXTENSION'),
  ('_elementtree',
   'c:\\users\\pental\\anaconda3\\DLLs\\_elementtree.pyd',
   'EXTENSION'),
  ('lxml.etree',
   'c:\\users\\pental\\anaconda3\\lib\\site-packages\\lxml\\etree.cp38-win_amd64.pyd',
   'EXTENSION'),
  ('lxml._elementpath',
   'c:\\users\\pental\\anaconda3\\lib\\site-packages\\lxml\\_elementpath.cp38-win_amd64.pyd',
   'EXTENSION'),
  ('lxml.builder',
   'c:\\users\\pental\\anaconda3\\lib\\site-packages\\lxml\\builder.cp38-win_amd64.pyd',
   'EXTENSION'),
  ('lxml.html.clean',
   'c:\\users\\pental\\anaconda3\\lib\\site-packages\\lxml\\html\\clean.cp38-win_amd64.pyd',
   'EXTENSION'),
  ('lxml.html.diff',
   'c:\\users\\pental\\anaconda3\\lib\\site-packages\\lxml\\html\\diff.cp38-win_amd64.pyd',
   'EXTENSION'),
  ('lxml.objectify',
   'c:\\users\\pental\\anaconda3\\lib\\site-packages\\lxml\\objectify.cp38-win_amd64.pyd',
   'EXTENSION'),
  ('lxml.sax',
   'c:\\users\\pental\\anaconda3\\lib\\site-packages\\lxml\\sax.cp38-win_amd64.pyd',
   'EXTENSION'),
  ('libcrypto-1_1-x64.dll',
   'C:\\Users\\pental\\anaconda3\\Library\\bin\\libcrypto-1_1-x64.dll',
   'BINARY'),
  ('libssl-1_1-x64.dll',
   'C:\\Users\\pental\\anaconda3\\Library\\bin\\libssl-1_1-x64.dll',
   'BINARY'),
  ('libffi-7.dll',
   'c:\\users\\pental\\anaconda3\\DLLs\\libffi-7.dll',
   'BINARY'),
  ('api-ms-win-crt-utility-l1-1-0.dll',
   'c:\\users\\pental\\anaconda3\\api-ms-win-crt-utility-l1-1-0.dll',
   'BINARY'),
  ('pywintypes38.dll',
   'c:\\users\\pental\\anaconda3\\lib\\site-packages\\win32\\pywintypes38.dll',
   'BINARY'),
  ('libexslt.dll',
   'C:\\Users\\pental\\anaconda3\\Library\\bin\\libexslt.dll',
   'BINARY'),
  ('libxml2.dll',
   'C:\\Users\\pental\\anaconda3\\Library\\bin\\libxml2.dll',
   'BINARY'),
  ('libxslt.dll',
   'C:\\Users\\pental\\anaconda3\\Library\\bin\\libxslt.dll',
   'BINARY'),
  ('zlib.dll',
   'C:\\Users\\pental\\anaconda3\\Library\\bin\\zlib.dll',
   'BINARY'),
  ('iconv.dll',
   'C:\\Users\\pental\\anaconda3\\Library\\bin\\iconv.dll',
   'BINARY'),
  ('charset.dll',
   'C:\\Users\\pental\\anaconda3\\Library\\bin\\charset.dll',
   'BINARY'),
  ('base_library.zip',
   'C:\\Users\\pental\\PythonProject\\build\\GPXInvert2\\base_library.zip',
   'DATA'),
  ('lxml\\isoschematron\\resources\\xsl\\iso-schematron-xslt1\\iso_dsdl_include.xsl',
   'c:\\users\\pental\\anaconda3\\lib\\site-packages\\lxml\\isoschematron\\resources\\xsl\\iso-schematron-xslt1\\iso_dsdl_include.xsl',
   'DATA'),
  ('lxml\\isoschematron\\resources\\xsl\\iso-schematron-xslt1\\iso_schematron_skeleton_for_xslt1.xsl',
   'c:\\users\\pental\\anaconda3\\lib\\site-packages\\lxml\\isoschematron\\resources\\xsl\\iso-schematron-xslt1\\iso_schematron_skeleton_for_xslt1.xsl',
   'DATA'),
  ('lxml\\isoschematron\\resources\\xsl\\iso-schematron-xslt1\\iso_schematron_message.xsl',
   'c:\\users\\pental\\anaconda3\\lib\\site-packages\\lxml\\isoschematron\\resources\\xsl\\iso-schematron-xslt1\\iso_schematron_message.xsl',
   'DATA'),
  ('lxml\\isoschematron\\resources\\xsl\\iso-schematron-xslt1\\iso_svrl_for_xslt1.xsl',
   'c:\\users\\pental\\anaconda3\\lib\\site-packages\\lxml\\isoschematron\\resources\\xsl\\iso-schematron-xslt1\\iso_svrl_for_xslt1.xsl',
   'DATA'),
  ('lxml\\isoschematron\\resources\\rng\\iso-schematron.rng',
   'c:\\users\\pental\\anaconda3\\lib\\site-packages\\lxml\\isoschematron\\resources\\rng\\iso-schematron.rng',
   'DATA'),
  ('lxml\\isoschematron\\resources\\xsl\\iso-schematron-xslt1\\readme.txt',
   'c:\\users\\pental\\anaconda3\\lib\\site-packages\\lxml\\isoschematron\\resources\\xsl\\iso-schematron-xslt1\\readme.txt',
   'DATA'),
  ('lxml\\isoschematron\\resources\\xsl\\XSD2Schtrn.xsl',
   'c:\\users\\pental\\anaconda3\\lib\\site-packages\\lxml\\isoschematron\\resources\\xsl\\XSD2Schtrn.xsl',
   'DATA'),
  ('lxml\\isoschematron\\resources\\xsl\\iso-schematron-xslt1\\iso_abstract_expand.xsl',
   'c:\\users\\pental\\anaconda3\\lib\\site-packages\\lxml\\isoschematron\\resources\\xsl\\iso-schematron-xslt1\\iso_abstract_expand.xsl',
   'DATA'),
  ('lxml\\isoschematron\\resources\\xsl\\RNG2Schtrn.xsl',
   'c:\\users\\pental\\anaconda3\\lib\\site-packages\\lxml\\isoschematron\\resources\\xsl\\RNG2Schtrn.xsl',
   'DATA'),
  ('GPXInvert2.exe.manifest',
   'C:\\Users\\pental\\PythonProject\\build\\GPXInvert2\\GPXInvert2.exe.manifest',
   'BINARY'),
  ('pyi-windows-manifest-filename GPXInvert2.exe.manifest', '', 'OPTION')],
 False,
 False,
 False,
 [])
